{"id":"96646a71-af1b-443b-bf4f-1290505c9f06","code":"200","message":"OK","result":{"content":[{"verifyId":102,"userId":11908,"realname":"联果普通用户","nickname":"lianguo01","cellphone":"18668106560","idNumber":"330122198801014776","operatorName":null,"submitTime":1511489445445,"idExpire":null,"accountStaff":null,"accountStatusCode":null,"accountStatus":"未审核","identityStaff":null,"identityStatus":"未审核","identityStatusCode":null},{"verifyId":101,"userId":11897,"realname":"三黄步","nickname":"huangshu63","cellphone":"18657180340","idNumber":"330122198801016093","operatorName":null,"submitTime":1510656241225,"idExpire":null,"accountStaff":null,"accountStatusCode":null,"accountStatus":"未审核","identityStaff":null,"identityStatus":"未审核","identityStatusCode":null},{"verifyId":100,"userId":11898,"realname":"二黄步","nickname":"huangshu62","cellphone":"18607114550","idNumber":"330122198801010839","operatorName":null,"submitTime":1510656227079,"idExpire":null,"accountStaff":null,"accountStatusCode":null,"accountStatus":"未审核","identityStaff":null,"identityStatus":"未审核","identityStatusCode":null},{"verifyId":99,"userId":11896,"realname":"一黄步","nickname":"huangshu61","cellphone":"18668106560","idNumber":"330122198801018750","operatorName":null,"submitTime":1510656213560,"idExpire":null,"accountStaff":null,"accountStatusCode":null,"accountStatus":"未审核","identityStaff":null,"identityStatus":"未审核","identityStatusCode":null},{"verifyId":98,"userId":11893,"realname":"黄小小叔","nickname":"huangshu50","cellphone":"186681065605","idNumber":"330122198801016237","operatorName":null,"submitTime":1510642278884,"idExpire":null,"accountStaff":null,"accountStatusCode":null,"accountStatus":"未审核","identityStaff":null,"identityStatus":"未审核","identityStatusCode":null},{"verifyId":97,"userId":11892,"realname":"张晶晶","nickname":"瓶子里的猫啦啦","cellphone":"13656664783","idNumber":"320106198310290811","operatorName":null,"submitTime":1510625031983,"idExpire":null,"accountStaff":null,"accountStatusCode":null,"accountStatus":"未审核","identityStaff":null,"identityStatus":"未审核","identityStatusCode":null},{"verifyId":96,"userId":11890,"realname":"包一","nickname":"bbbb","cellphone":"13654287965","idNumber":"421087198310100915","operatorName":null,"submitTime":1510575157103,"idExpire":null,"accountStaff":null,"accountStatusCode":null,"accountStatus":"未审核","identityStaff":null,"identityStatus":"未审核","identityStatusCode":null},{"verifyId":94,"userId":11888,"realname":"赵一","nickname":"zzzz","cellphone":"13569878579","idNumber":"620121198607034696","operatorName":null,"submitTime":1510570500797,"idExpire":null,"accountStaff":null,"accountStatusCode":null,"accountStatus":"未审核","identityStaff":null,"identityStatus":"未审核","identityStatusCode":null},{"verifyId":93,"userId":11887,"realname":"联果","nickname":"moulianguo","cellphone":"17681803787","idNumber":"330122198801012690","operatorName":null,"submitTime":1510195531887,"idExpire":null,"accountStaff":null,"accountStatusCode":null,"accountStatus":"未审核","identityStaff":null,"identityStatus":"未审核","identityStatusCode":null},{"verifyId":91,"userId":11881,"realname":"徐徐","nickname":"xuwei","cellphone":"186681065602","idNumber":"330122198801012818","operatorName":null,"submitTime":1510120158046,"idExpire":null,"accountStaff":null,"accountStatusCode":null,"accountStatus":"未审核","identityStaff":null,"identityStatus":"未审核","identityStatusCode":null},{"verifyId":92,"userId":11884,"realname":"叫黄叔","nickname":"huangshu40","cellphone":"18668106560","idNumber":"330122198801017432","operatorName":null,"submitTime":1510041064452,"idExpire":null,"accountStaff":null,"accountStatusCode":null,"accountStatus":"未审核","identityStaff":null,"identityStatus":"未审核","identityStatusCode":null},{"verifyId":90,"userId":11877,"realname":"皇叔三十","nickname":"huangshu30","cellphone":"18668106560","idNumber":"33012219880101395X","operatorName":null,"submitTime":1509367291272,"idExpire":null,"accountStaff":null,"accountStatusCode":null,"accountStatus":"未审核","identityStaff":null,"identityStatus":"未审核","identityStatusCode":null},{"verifyId":89,"userId":11876,"realname":"皇叔二十","nickname":"huangshu20","cellphone":"18607114550","idNumber":"123456789012345678","operatorName":null,"submitTime":1508305744076,"idExpire":null,"accountStaff":null,"accountStatusCode":null,"accountStatus":"未审核","identityStaff":null,"identityStatus":"未审核","identityStatusCode":null},{"verifyId":88,"userId":11529,"realname":"地方","nickname":"测试99","cellphone":"1835891232109","idNumber":"422802199302245415","operatorName":null,"submitTime":1507779011629,"idExpire":null,"accountStaff":null,"accountStatusCode":null,"accountStatus":"未审核","identityStaff":null,"identityStatus":"未审核","identityStatusCode":null},{"verifyId":87,"userId":11872,"realname":"皇叔","nickname":"huangshu12","cellphone":"186571803400","idNumber":"330122198801012738","operatorName":null,"submitTime":1507708604522,"idExpire":null,"accountStaff":null,"accountStatusCode":null,"accountStatus":"未审核","identityStaff":null,"identityStatus":"未审核","identityStatusCode":null},{"verifyId":85,"userId":11871,"realname":"皇叔","nickname":"huangshu11","cellphone":"18607114550","idNumber":"33012219880101715X","operatorName":null,"submitTime":1506040654733,"idExpire":null,"accountStaff":"审核员3","accountStatusCode":null,"accountStatus":"未审核","identityStaff":"审核员3","identityStatus":"未审核","identityStatusCode":null},{"verifyId":81,"userId":11870,"realname":"皇叔","nickname":"huangshu10","cellphone":"18668106560","idNumber":"330122198801016173","operatorName":null,"submitTime":1506040577134,"idExpire":null,"accountStaff":"审核员3","accountStatusCode":null,"accountStatus":"未审核","identityStaff":"审核员3","identityStatus":"未审核","identityStatusCode":null},{"verifyId":84,"userId":11869,"realname":"哦啦","nickname":"kh","cellphone":"15623152415","idNumber":"652325198403231720","operatorName":null,"submitTime":1505979161681,"idExpire":null,"accountStaff":"审核员3","accountStatusCode":null,"accountStatus":"未审核","identityStaff":null,"identityStatus":"未审核","identityStatusCode":null},{"verifyId":28,"userId":11545,"realname":"桔子零一","nickname":"juzi01","cellphone":"18668106560---","idNumber":"420103190001010773","operatorName":null,"submitTime":1505462644206,"idExpire":null,"accountStaff":"审核员1","accountStatusCode":null,"accountStatus":"未审核","identityStaff":"审核员1","identityStatus":"未审核","identityStatusCode":null},{"verifyId":20,"userId":11866,"realname":"看看","nickname":"llh","cellphone":"15623142513","idNumber":"431381197706254123","operatorName":null,"submitTime":1505285193461,"idExpire":null,"accountStaff":"审核员1","accountStatusCode":null,"accountStatus":"未审核","identityStaff":null,"identityStatus":"未审核","identityStatusCode":null},{"verifyId":35,"userId":11865,"realname":"李嘎","nickname":"嘎嘎","cellphone":"18758285734","idNumber":"411525198412291149","operatorName":null,"submitTime":1505201404760,"idExpire":null,"accountStaff":"审核员1","accountStatusCode":null,"accountStatus":"未审核","identityStaff":null,"identityStatus":"未审核","identityStatusCode":null},{"verifyId":83,"userId":11864,"realname":"地方","nickname":"电饭锅豆腐干","cellphone":"13400000008","idNumber":"110102199901017892","operatorName":null,"submitTime":1505181412393,"idExpire":null,"accountStaff":"审核员3","accountStatusCode":null,"accountStatus":"未审核","identityStaff":null,"identityStatus":"未审核","identityStatusCode":null},{"verifyId":16,"userId":11863,"realname":"股吧","nickname":"过淡定淡定","cellphone":"13100000007","idNumber":"110102199901013074","operatorName":null,"submitTime":1505180984503,"idExpire":null,"accountStaff":"审核员1","accountStatusCode":null,"accountStatus":"审核未通过","identityStaff":null,"identityStatus":"未审核","identityStatusCode":null},{"verifyId":82,"userId":11862,"realname":"几哈","nickname":"bb","cellphone":"15623152416","idNumber":"421281199210176313","operatorName":null,"submitTime":1505135643295,"idExpire":null,"accountStaff":"审核员3","accountStatusCode":null,"accountStatus":"未审核","identityStaff":null,"identityStatus":"未审核","identityStatusCode":null},{"verifyId":14,"userId":11856,"realname":"地方","nickname":"九月七测试","cellphone":"13100000098","idNumber":"110102199901011351","operatorName":null,"submitTime":1504748043266,"idExpire":null,"accountStaff":"审核员1","accountStatusCode":null,"accountStatus":"通过","identityStaff":"审核员1","identityStatus":"通过","identityStatusCode":null},{"verifyId":13,"userId":11855,"realname":"史蒂夫","nickname":"测试开户bug","cellphone":"13100000999","idNumber":"110102199901010690","operatorName":null,"submitTime":1504746833874,"idExpire":null,"accountStaff":"审核员1","accountStatusCode":null,"accountStatus":"通过","identityStaff":"审核员1","identityStatus":"通过","identityStatusCode":null},{"verifyId":12,"userId":11853,"realname":"程琪鸿","nickname":"cqh","cellphone":"18257371380","idNumber":"330108199901017250","operatorName":null,"submitTime":1504676588300,"idExpire":null,"accountStaff":"审核员1","accountStatusCode":null,"accountStatus":"通过","identityStaff":"审核员1","identityStatus":"通过","identityStatusCode":null},{"verifyId":11,"userId":11845,"realname":"五咖啡","nickname":"kafei05","cellphone":"18657180340","idNumber":"330122198801011735","operatorName":null,"submitTime":1504494128915,"idExpire":null,"accountStaff":"审核员1","accountStatusCode":null,"accountStatus":"未审核","identityStaff":"审核员1","identityStatus":"未审核","identityStatusCode":null},{"verifyId":10,"userId":11844,"realname":"豆腐干","nickname":"豆腐干11111","cellphone":"13101000001","idNumber":"110102199901014659","operatorName":null,"submitTime":1504168858738,"idExpire":null,"accountStaff":"审核员1","accountStatusCode":null,"accountStatus":"审核未通过","identityStaff":"审核员1","identityStatus":"审核未通过","identityStatusCode":null},{"verifyId":7,"userId":11842,"realname":"功夫","nickname":"豆腐干3333","cellphone":"13100000002","idNumber":"110102199901010551","operatorName":null,"submitTime":1503903358320,"idExpire":null,"accountStaff":"审核员2","accountStatusCode":null,"accountStatus":"通过","identityStaff":"审核员1","identityStatus":"未审核","identityStatusCode":null}],"totalElements":86,"last":false,"totalPages":3,"number":0,"size":30,"sort":null,"first":true,"numberOfElements":30},"error":null}